<svg xmlns="http://www.w3.org/2000/svg" xmlns:xlink="http://www.w3.org/1999/xlink" version="1.2"
    style="max-width:297mm;max-height:210mm;" viewBox="0 0 {{data.width}} {{data.height}}">

<defs>
    <pattern id="diagonalHatch" patternUnits="userSpaceOnUse" width="30" height="30">
    <path d="M-1 31 L31 -1" style="stroke: silver; stroke-width:1;" />

    </pattern>
    <marker id="triangle" viewBox="0 0 6 6"
          refX="6" refY="3" 
          markerUnits="strokeWidth"
          markerWidth="6" markerHeight="6"
          orient="auto">
       <path d="M 0 0 L 6 3 L 0 6 z" style="fill:inherit;"/>
    </marker>


    <path id="aws" fill="currentColor" d="M180.41 203.01c-.72 22.65 10.6 32.68 10.88 39.05a8.164 8.164 0 0 1-4.1 6.27l-12.8 8.96a10.66 10.66 0 0 1-5.63 1.92c-.43-.02-8.19 1.83-20.48-25.61a78.608 78.608 0 0 1-62.61 29.45c-16.28.89-60.4-9.24-58.13-56.21-1.59-38.28 34.06-62.06 70.93-60.05 7.1.02 21.6.37 46.99 6.27v-15.62c2.69-26.46-14.7-46.99-44.81-43.91-2.4.01-19.4-.5-45.84 10.11-7.36 3.38-8.3 2.82-10.75 2.82-7.41 0-4.36-21.48-2.94-24.2 5.21-6.4 35.86-18.35 65.94-18.18a76.857 76.857 0 0 1 55.69 17.28 70.285 70.285 0 0 1 17.67 52.36l-.01 69.29zM93.99 235.4c32.43-.47 46.16-19.97 49.29-30.47 2.46-10.05 2.05-16.41 2.05-27.4-9.67-2.32-23.59-4.85-39.56-4.87-15.15-1.14-42.82 5.63-41.74 32.26-1.24 16.79 11.12 31.4 29.96 30.48zm170.92 23.05c-7.86.72-11.52-4.86-12.68-10.37l-49.8-164.65c-.97-2.78-1.61-5.65-1.92-8.58a4.61 4.61 0 0 1 3.86-5.25c.24-.04-2.13 0 22.25 0 8.78-.88 11.64 6.03 12.55 10.37l35.72 140.83 33.16-140.83c.53-3.22 2.94-11.07 12.8-10.24h17.16c2.17-.18 11.11-.5 12.68 10.37l33.42 142.63L420.98 80.1c.48-2.18 2.72-11.37 12.68-10.37h19.72c.85-.13 6.15-.81 5.25 8.58-.43 1.85 3.41-10.66-52.75 169.9-1.15 5.51-4.82 11.09-12.68 10.37h-18.69c-10.94 1.15-12.51-9.66-12.68-10.75L328.67 110.7l-32.78 136.99c-.16 1.09-1.73 11.9-12.68 10.75h-18.3zm273.48 5.63c-5.88.01-33.92-.3-57.36-12.29a12.802 12.802 0 0 1-7.81-11.91v-10.75c0-8.45 6.2-6.9 8.83-5.89 10.04 4.06 16.48 7.14 28.81 9.6 36.65 7.53 52.77-2.3 56.72-4.48 13.15-7.81 14.19-25.68 5.25-34.95-10.48-8.79-15.48-9.12-53.13-21-4.64-1.29-43.7-13.61-43.79-52.36-.61-28.24 25.05-56.18 69.52-55.95 12.67-.01 46.43 4.13 55.57 15.62 1.35 2.09 2.02 4.55 1.92 7.04v10.11c0 4.44-1.62 6.66-4.87 6.66-7.71-.86-21.39-11.17-49.16-10.75-6.89-.36-39.89.91-38.41 24.97-.43 18.96 26.61 26.07 29.7 26.89 36.46 10.97 48.65 12.79 63.12 29.58 17.14 22.25 7.9 48.3 4.35 55.44-19.08 37.49-68.42 34.44-69.26 34.42zm40.2 104.86c-70.03 51.72-171.69 79.25-258.49 79.25A469.127 469.127 0 0 1 2.83 327.46c-6.53-5.89-.77-13.96 7.17-9.47a637.37 637.37 0 0 0 316.88 84.12 630.22 630.22 0 0 0 241.59-49.55c11.78-5 21.77 7.8 10.12 16.38zm29.19-33.29c-8.96-11.52-59.28-5.38-81.81-2.69-6.79.77-7.94-5.12-1.79-9.47 40.07-28.17 105.88-20.1 113.44-10.63 7.55 9.47-2.05 75.41-39.56 106.91-5.76 4.87-11.27 2.3-8.71-4.1 8.44-21.25 27.39-68.49 18.43-80.02z" class="icon"></path>
    <path id="icon-C" fill="currentColor" d="M624 416H381.54c-.74 19.81-14.71 32-32.74 32H288c-18.69 0-33.02-17.47-32.77-32H16c-8.8 0-16 7.2-16 16v16c0 35.2 28.8 64 64 64h512c35.2 0 64-28.8 64-64v-16c0-8.8-7.2-16-16-16zM576 48c0-26.4-21.6-48-48-48H112C85.6 0 64 21.6 64 48v336h512V48zm-64 272H128V64h384v256z" class="icon"></path>
    <path id="icon-PA" fill="currentColor" d="M336.5 160C322 70.7 287.8 8 248 8s-74 62.7-88.5 152h177zM152 256c0 22.2 1.2 43.5 3.3 64h185.3c2.1-20.5 3.3-41.8 3.3-64s-1.2-43.5-3.3-64H155.3c-2.1 20.5-3.3 41.8-3.3 64zm324.7-96c-28.6-67.9-86.5-120.4-158-141.6 24.4 33.8 41.2 84.7 50 141.6h108zM177.2 18.4C105.8 39.6 47.8 92.1 19.3 160h108c8.7-56.9 25.5-107.8 49.9-141.6zM487.4 192H372.7c2.1 21 3.3 42.5 3.3 64s-1.2 43-3.3 64h114.6c5.5-20.5 8.6-41.8 8.6-64s-3.1-43.5-8.5-64zM120 256c0-21.5 1.2-43 3.3-64H8.6C3.2 212.5 0 233.8 0 256s3.2 43.5 8.6 64h114.6c-2-21-3.2-42.5-3.2-64zm39.5 96c14.5 89.3 48.7 152 88.5 152s74-62.7 88.5-152h-177zm159.3 141.6c71.4-21.2 129.4-73.7 158-141.6h-108c-8.8 56.9-25.6 107.8-50 141.6zM19.3 352c28.6 67.9 86.5 120.4 158 141.6-24.4-33.8-41.2-84.7-50-141.6h-108z" class="icon"></path>
    <path id="icon-D" fill="currentColor" d="M448 73.143v45.714C448 159.143 347.667 192 224 192S0 159.143 0 118.857V73.143C0 32.857 100.333 0 224 0s224 32.857 224 73.143zM448 176v102.857C448 319.143 347.667 352 224 352S0 319.143 0 278.857V176c48.125 33.143 136.208 48.572 224 48.572S399.874 209.143 448 176zm0 160v102.857C448 479.143 347.667 512 224 512S0 479.143 0 438.857V336c48.125 33.143 136.208 48.572 224 48.572S399.874 369.143 448 336z" class="icon"></path>
    <path id="icon-FS" fill="currentColor" d="M572.694 292.093L500.27 416.248A63.997 63.997 0 0 1 444.989 448H45.025c-18.523 0-30.064-20.093-20.731-36.093l72.424-124.155A64 64 0 0 1 152 256h399.964c18.523 0 30.064 20.093 20.73 36.093zM152 224h328v-48c0-26.51-21.49-48-48-48H272l-64-64H48C21.49 64 0 85.49 0 112v278.046l69.077-118.418C86.214 242.25 117.989 224 152 224z" class="icon"></path>
    <path id="icon-Msg" fill="currentColor" d="M160 448c-25.6 0-51.2-22.4-64-32-64-44.8-83.2-60.8-96-70.4V480c0 17.67 14.33 32 32 32h256c17.67 0 32-14.33 32-32V345.6c-12.8 9.6-32 25.6-96 70.4-12.8 9.6-38.4 32-64 32zm128-192H32c-17.67 0-32 14.33-32 32v16c25.6 19.2 22.4 19.2 115.2 86.4 9.6 6.4 28.8 25.6 44.8 25.6s35.2-19.2 44.8-22.4c92.8-67.2 89.6-67.2 115.2-86.4V288c0-17.67-14.33-32-32-32zm256-96H224c-17.67 0-32 14.33-32 32v32h96c33.21 0 60.59 25.42 63.71 57.82l.29-.22V416h192c17.67 0 32-14.33 32-32V192c0-17.67-14.33-32-32-32zm-32 128h-64v-64h64v64zm-352-96c0-35.29 28.71-64 64-64h224V32c0-17.67-14.33-32-32-32H96C78.33 0 64 14.33 64 32v192h96v-32z" class="icon"></path>
    <path id="icon-Mon" fill="currentColor" d="M480 96H96v160h100.95c3.03 0 5.8 1.71 7.15 4.42l19.9 39.8 49.69-99.38c5.9-11.79 22.72-11.79 28.62 0L329.89 256H400c8.84 0 16 7.16 16 16s-7.16 16-16 16h-89.89L288 243.78l-49.69 99.38c-5.9 11.79-22.72 11.79-28.62 0L182.11 288H96v128h384V96zm48-96H48C21.49 0 0 21.49 0 48v416c0 26.51 21.49 48 48 48h480c26.51 0 48-21.49 48-48V48c0-26.51-21.49-48-48-48zm-16 448H64V64h448v384z" class="icon"></path>
    <path id="icon-Tun" fill="currentColor" d="M128.73 195.32l-82.81-51.76c-8.04-5.02-18.99-2.17-22.93 6.45A254.19 254.19 0 0 0 .54 239.28C-.05 248.37 7.59 256 16.69 256h97.13c7.96 0 14.08-6.25 15.01-14.16 1.09-9.33 3.24-18.33 6.24-26.94 2.56-7.34.25-15.46-6.34-19.58zM319.03 8C298.86 2.82 277.77 0 256 0s-42.86 2.82-63.03 8c-9.17 2.35-13.91 12.6-10.39 21.39l37.47 104.03A16.003 16.003 0 0 0 235.1 144h41.8c6.75 0 12.77-4.23 15.05-10.58l37.47-104.03c3.52-8.79-1.22-19.03-10.39-21.39zM112 288H16c-8.84 0-16 7.16-16 16v64c0 8.84 7.16 16 16 16h96c8.84 0 16-7.16 16-16v-64c0-8.84-7.16-16-16-16zm0 128H16c-8.84 0-16 7.16-16 16v64c0 8.84 7.16 16 16 16h96c8.84 0 16-7.16 16-16v-64c0-8.84-7.16-16-16-16zm77.31-283.67l-36.32-90.8c-3.53-8.83-14.13-12.99-22.42-8.31a257.308 257.308 0 0 0-71.61 59.89c-6.06 7.32-3.85 18.48 4.22 23.52l82.93 51.83c6.51 4.07 14.66 2.62 20.11-2.79 5.18-5.15 10.79-9.85 16.79-14.05 6.28-4.41 9.15-12.17 6.3-19.29zM398.18 256h97.13c9.1 0 16.74-7.63 16.15-16.72a254.135 254.135 0 0 0-22.45-89.27c-3.94-8.62-14.89-11.47-22.93-6.45l-82.81 51.76c-6.59 4.12-8.9 12.24-6.34 19.58 3.01 8.61 5.15 17.62 6.24 26.94.93 7.91 7.05 14.16 15.01 14.16zm54.85-162.89a257.308 257.308 0 0 0-71.61-59.89c-8.28-4.68-18.88-.52-22.42 8.31l-36.32 90.8c-2.85 7.12.02 14.88 6.3 19.28 6 4.2 11.61 8.9 16.79 14.05 5.44 5.41 13.6 6.86 20.11 2.79l82.93-51.83c8.07-5.03 10.29-16.19 4.22-23.51zM496 288h-96c-8.84 0-16 7.16-16 16v64c0 8.84 7.16 16 16 16h96c8.84 0 16-7.16 16-16v-64c0-8.84-7.16-16-16-16zm0 128h-96c-8.84 0-16 7.16-16 16v64c0 8.84 7.16 16 16 16h96c8.84 0 16-7.16 16-16v-64c0-8.84-7.16-16-16-16zM240 177.62V472c0 4.42 3.58 8 8 8h16c4.42 0 8-3.58 8-8V177.62c-5.23-.89-10.52-1.62-16-1.62s-10.77.73-16 1.62zm-64 41.51V472c0 4.42 3.58 8 8 8h16c4.42 0 8-3.58 8-8V189.36c-12.78 7.45-23.84 17.47-32 29.77zm128-29.77V472c0 4.42 3.58 8 8 8h16c4.42 0 8-3.58 8-8V219.13c-8.16-12.3-19.22-22.32-32-29.77z" class="icon"></path>
    <path id="icon-LB" fill="currentColor" d="M480 160H32c-17.673 0-32-14.327-32-32V64c0-17.673 14.327-32 32-32h448c17.673 0 32 14.327 32 32v64c0 17.673-14.327 32-32 32zm-48-88c-13.255 0-24 10.745-24 24s10.745 24 24 24 24-10.745 24-24-10.745-24-24-24zm-64 0c-13.255 0-24 10.745-24 24s10.745 24 24 24 24-10.745 24-24-10.745-24-24-24zm112 248H32c-17.673 0-32-14.327-32-32v-64c0-17.673 14.327-32 32-32h448c17.673 0 32 14.327 32 32v64c0 17.673-14.327 32-32 32zm-48-88c-13.255 0-24 10.745-24 24s10.745 24 24 24 24-10.745 24-24-10.745-24-24-24zm-64 0c-13.255 0-24 10.745-24 24s10.745 24 24 24 24-10.745 24-24-10.745-24-24-24zm112 248H32c-17.673 0-32-14.327-32-32v-64c0-17.673 14.327-32 32-32h448c17.673 0 32 14.327 32 32v64c0 17.673-14.327 32-32 32zm-48-88c-13.255 0-24 10.745-24 24s10.745 24 24 24 24-10.745 24-24-10.745-24-24-24zm-64 0c-13.255 0-24 10.745-24 24s10.745 24 24 24 24-10.745 24-24-10.745-24-24-24z" class="icon"></path>
    <path id="icon-Not" fill="currentColor" d="M336.174 80c-49.132 0-93.305-32-161.913-32-31.301 0-58.303 6.482-80.721 15.168a48.04 48.04 0 0 0 2.142-20.727C93.067 19.575 74.167 1.594 51.201.104 23.242-1.71 0 20.431 0 48c0 17.764 9.657 33.262 24 41.562V496c0 8.837 7.163 16 16 16h16c8.837 0 16-7.163 16-16v-83.443C109.869 395.28 143.259 384 199.826 384c49.132 0 93.305 32 161.913 32 58.479 0 101.972-22.617 128.548-39.981C503.846 367.161 512 352.051 512 335.855V95.937c0-34.459-35.264-57.768-66.904-44.117C409.193 67.309 371.641 80 336.174 80zM464 336c-21.783 15.412-60.824 32-102.261 32-59.945 0-102.002-32-161.913-32-43.361 0-96.379 9.403-127.826 24V128c21.784-15.412 60.824-32 102.261-32 59.945 0 102.002 32 161.913 32 43.271 0 96.32-17.366 127.826-32v240z" class="icon"></path>
    <path id="icon-NS" fill="currentColor" d="M505.04 442.66l-99.71-99.69c-4.5-4.5-10.6-7-17-7h-16.3c27.6-35.3 44-79.69 44-127.99C416.03 93.09 322.92 0 208.02 0S0 93.09 0 207.98s93.11 207.98 208.02 207.98c48.3 0 92.71-16.4 128.01-44v16.3c0 6.4 2.5 12.5 7 17l99.71 99.69c9.4 9.4 24.6 9.4 33.9 0l28.3-28.3c9.4-9.4 9.4-24.59.1-33.99zm-297.02-90.7c-79.54 0-144-64.34-144-143.98 0-79.53 64.35-143.98 144-143.98 79.54 0 144 64.34 144 143.98 0 79.53-64.35 143.98-144 143.98zm.02-239.96c-40.78 0-73.84 33.05-73.84 73.83 0 32.96 48.26 93.05 66.75 114.86a9.24 9.24 0 0 0 14.18 0c18.49-21.81 66.75-81.89 66.75-114.86 0-40.78-33.06-73.83-73.84-73.83zm0 96c-13.26 0-24-10.75-24-24 0-13.26 10.75-24 24-24s24 10.74 24 24c0 13.25-10.75 24-24 24z" class="icon"></path>
    <path id="icon-auth" fill="currentColor" d="M224 256A128 128 0 1 0 96 128a128 128 0 0 0 128 128zm96 64a63.08 63.08 0 0 1 8.1-30.5c-4.8-.5-9.5-1.5-14.5-1.5h-16.7a174.08 174.08 0 0 1-145.8 0h-16.7A134.43 134.43 0 0 0 0 422.4V464a48 48 0 0 0 48 48h280.9a63.54 63.54 0 0 1-8.9-32zm288-32h-32v-80a80 80 0 0 0-160 0v80h-32a32 32 0 0 0-32 32v160a32 32 0 0 0 32 32h224a32 32 0 0 0 32-32V320a32 32 0 0 0-32-32zM496 432a32 32 0 1 1 32-32 32 32 0 0 1-32 32zm32-144h-64v-80a32 32 0 0 1 64 0z" class="icon"></path>
</defs>
<style>
  .zone {stroke-width: 5;}
  .zone.DEP {fill:url(#diagonalHatch) #fff;stroke-dasharray:0;rx:30;ry:30;stroke:black;}
  .zone.intranet {fill:#ffdd99;}
  .zone.internet {fill:#ffddbb;}
  .zone.internetF {fill:#ff9999;}
  .zone.intranetF {fill:#ff9999;}
  .zone.internetP {fill:#bbddff;}
  .zone.intranetP {fill:#bbddff;}
  .zone.internetA {fill:#bbffdd;}
  .zone.intranetA {fill:#bbffdd;}
  .zone.internetPA {fill:#bbffff;}
  .zone.intranetPA {fill:#bbffff;}
  .zone.internetD {fill:#ffff99;}
  .zone.intranetD {fill:#ffff99;}

  text {font-family: sans-serif;}

  .service {stroke-width: 1;stroke-style:solid;stroke:black;fill:white;}
  text.nodename {font-weight:bold; font-size:24pt;}
  text.nodedescription {font-weight:bold; font-size:12pt;}
  text.nodemeta {font-weight:bold; font-size:12pt;}
  text.zoneid {font-weight:bold; font-size:16pt;}
  
  .nodetopology rect {stroke-width:2;stroke:red;fill:white;}
  .nodeactive rect {stroke-width:2;stroke:green;fill:white;}
  .nodeinfra rect {stroke-width:2;stroke:blue;fill:white;}
  .nodetopology text {font-weight:bold;fill:red;}
  .nodeactive text {font-weight:bold;fill:green;}
  .nodeinfra text {font-weight:bold;fill:blue}

  path.link {stroke-width: 4;marker-end:url(#triangle)}
  .web {stroke:rgb(112,48,160);}
  .TCP {stroke:rgb(0,0,0);}
  .ftp {stroke: orange;}
  .ssh {stroke: fuchsia;}
  .database {stroke:rgb(255,0,0);}
  .storage {stroke: brown;}
  .log {stroke: blue;}
  .icon {width:100;height:100;}
</style>

<g transform="translate(0,0) scale({{data.scale}})" width="{{data.width}}" height="{{data.height}}"  id="diagram_body">

  {% block footer %}
    {% for group in data.groups %}
    <g id="{{group.id}}" transform="translate({{group.left}}, {{group.top}})">
      {% for zone in group.zones %}
      <g id="{{zone.id}}" transform="translate({{zone.left}}, {{zone.top}})">
        <rect class="zone {{zone.type}}" width="{{zone.width}}" height="{{zone.height}}" rx="20" ry="20" />
        <g class="zone_info" transform="translate(0  {{zone.height-30}}) rotate(-90 20 30)">
          <rect x="35" y="25" width="{{zone.height-30}}" height="55"  style="fill:white;stroke:none;stroke-width:0;rx:4;ry:4;"/>
          <text class="zonetitle" text-anchor="start" x="70" y="40">{{zone.name}}</text>
          <text class="zonesubtitle" text-anchor="start" x="70" y="70">{{zone.type}}</text>
          <text class="zoneid" text-anchor="middle" x="50" y="-40" transform="rotate(90)">{{zone.id}}</text>
          
          <path d="M40 90 H{{zone.height}} Z" class="zone {{zone.type}}" style="stroke:#000;fill:"/>
        </g>
        <!-- Services -->
        {% for node in zone.services %}
        <g id="{{node.id}}" transform="translate({{node.left}}, {{node.top}})">
           <rect x="0" y="0" width="{{node.width}}" height="{{node.height}}" class="service {{node.role}}" rx="10" ry="10"/>
           <text class="nodename" text-anchor="start" x="20" y="35">{{node.name}}</text>
           <text class="nodedescription" text-anchor="start" x="20" y="85">{{node.description}}</text>
           <use xlink:href="#icon-{{node.role}}" x="3300" y="100" transform="scale(0.1)"/>
        </g>
        {% endfor %}

        <!-- Nodes -->
        {% for node in zone.nodes %}
        <g id="{{node.id}}" transform="translate({{node.left}}, {{node.top}})">
            <rect x="0" y="0" width="{{node.width}}" height="{{node.height}}" class="service {{node.role}}" rx="10" ry="10"/>
            <text class="nodename" text-anchor="start" x="20" y="35">{{node.name}}</text>
            <text class="nodedescription" text-anchor="start" x="20" y="70">{{node.description}}</text>
            <use xlink:href="#icon-{{node.role}}" x="3300" y="100"  transform="scale(0.1)"/>
            
            <!-- topologie -->
            <g transform="translate(5, 80)" class="nodetopology">
                <rect x="5" y="5" width="120" height="35" rx="5" ry="5"/>
                <text class="nodemeta" x="65" y="30" text-anchor="middle">{{node.topology}}</text>
            </g>

            <!-- active -->
            <g transform="translate(135, 80)" class="nodeactive">
                <rect x="5" y="5" width="120" height="35"  rx="5" ry="5"/>
                <text class="nodemeta" x="65" y="30" text-anchor="middle">{{node.active}}</text>
            </g>

            <!-- infra -->
            <g transform="translate(265, 80)" class="nodeinfra">
                <rect x="5" y="5" width="120" height="35"  rx="5" ry="5"/>
                <text class="nodemeta" x="65" y="30" text-anchor="middle">{{node.infra}}</text>
            </g>

        </g>
        {% endfor %}

      </g>
      {% endfor %}
    </g>     
    {% endfor %}
{% endblock %}

  <g id="flows">
    {% for flow in data.flows %}
    <path id="{{flow.origin}}-{{flow.dest}}-{{flow.proto}}_{{flow.port}}" d="{{flow.layout}}" style="fill:none;" stroke-linejoin="round" class="link {{flow.type}}" />
    {% endfor %}   
  </g>

</g>

</svg>